100
9743178
309195
4693616
4985203
3651083
3019496
8671600
385698
5043734
6079720
4357995
832067
7297761
7973390
2743531
7498653
5956956
8586226
7209903
4100811
9524146
9802470
8114710
5624762
6772282
9718972
7767059
7559571
2025197
6024810
675278
1768374
8850356
7885245
6753577
5017791
904740
7941528
5403488
5948473
6537599
2277834
9296891
3835359
251223
4556774
1334012
8724530
3142999
1060266
5341693
2667144
862736
3456402
808257
151369
3175373
1091667
7710939
5200569
7116477
8386216
6968943
5966832
8787812
6238871
984622
9692551
6696750
6388109
8157376
3234348
1182294
9970618
7069707
1433517
4527391
920070
2674398
7670389
1980335
8016090
2853884
5359422
1472492
3662141
5510790
7164216
4753807
5738080
2364785
4386635
6640647
1850079
2869819
5428458
605301
3854440
5121009
7302050
100
2758901
5794736
536397
3941194
5765353
122455
7891062
292744
1042524
565460
7963132
5539211
8581549
817016
3414984
2570392
6995508
8925774
9734608
4265666
7180205
2099392
8652301
3820852
6465822
1522119
9249309
7071122
7892910
4370317
6889523
3168162
2681404
7425919
7109356
8446757
64726
5000417
8739500
3623601
8082228
9218983
9162811
6663777
35998
5094147
1750520
7031505
6536272
1485127
3813523
3716476
6100870
4982175
7537327
2566691
6504293
6786636
2154164
6913554
3673304
9043686
81716
6354708
8985957
9707423
4801464
9050682
4707839
6057315
2674282
5306419
5276297
4353445
4486547
7828647
9447591
6237066
7376503
5983862
7722193
1190025
9700337
3823062
6172199
9754016
8906105
5192843
6540651
1060268
2106397
2730306
2620306
4704464
9085013
1606262
4411886
6402828
656943
1636076
100
4976494
5847576
6942494
2769143
2717372
1429040
597789
2164962
7666106
490643
665175
5388298
1680668
2881864
1727711
369218
2635879
633815
5562061
1692881
1694083
184809
4423186
4314388
7405624
6024551
8437001
1817509
4943730
1610295
5969936
9920224
7457870
2912430
2689366
175242
6857821
5803506
4856555
4523926
6294148
8038082
2428575
7974815
919945
4156286
860385
6072175
7306452
8938797
7765055
9000534
1639957
4704592
5831273
9045580
729142
4268273
3379440
5672872
5878567
9349375
8109447
5852789
4778156
3315164
8544382
1635977
9118669
3400936
8676254
5412816
3955369
3621181
5903983
4875313
293818
9280719
3463839
7600269
8219515
1228893
9117155
9859471
8449837
7464779
1421402
9178978
4249404
7317193
7368201
2644322
6666567
7993999
8497110
3961075
1309162
9557843
8113403
427830
100
5475131
9306008
8356998
9430499
5443540
4260980
4305812
5737357
3541698
7769650
5853978
4277564
1514895
7487484
6653386
9964731
4952262
8074787
1660060
9201665
5391979
1544613
1845987
4574897
9538611
2859448
1052323
847773
2417291
9165725
1275602
7892421
988085
9632599
7322919
6431624
6409930
4145082
2168981
2467979
4431084
539310
6745542
5945978
8026793
3398927
8427060
5495406
3990065
2603471
7213423
1898395
4148083
9059409
6473292
3686694
4435208
41966
4534466
6852498
1724043
8326419
7261270
2712127
7959018
7100541
9143750
6885299
1245622
3829082
9353278
5676705
4368391
6098819
4139034
4911535
2014098
5082445
406941
6004162
7685916
136715
7902557
1833998
1712475
6892200
8037043
6147682
6934165
2571508
5516532
8658207
897927
2777801
1370333
1373296
9878341
3030435
774946
3640315
100
6859516
128223
1833371
3744259
8743394
8488757
1172145
757491
3571201
4095437
9278004
3773468
4232151
7180560
8123818
5944625
6589111
6160860
2092307
3523276
8732368
125190
4697834
2146646
2902990
8584519
6036293
5297683
1614953
6811238
1454349
990820
6939461
3287719
7251430
8199206
1776475
8423575
1473048
7864028
2519011
751051
1637495
6751162
447963
9761312
2695786
7037073
5922172
7304444
3076700
7170891
7429633
7774534
1833888
2848975
6359052
386532
663009
490356
7197769
2117357
3997527
6653581
7921427
1248957
4852786
2214254
9672531
6325833
78281
4707893
9593236
4232127
3975406
41198
3993439
6671192
7078270
2431962
6491987
154970
2119204
3921620
445855
6469443
6770594
6804906
6855974
9949954
9811613
4053742
2067310
3809139
3223675
9988736
7574447
592812
4719341
9763329
100
9434997
4797621
4471222
9028232
9029748
8446627
9069429
5539538
7634170
8664050
487851
4126157
8819019
5123406
8047776
9264873
1592848
7334721
8586130
8448821
7284674
914094
5018914
1868335
4723233
758940
4373422
2297679
1351752
9092763
4577360
786748
6406735
9048581
9814979
7952834
11559
1400759
6008723
7645729
64808
6496573
4288237
1400179
1619978
4852364
3181403
5729177
4703436
1767533
4177997
4504461
2681626
1713263
6372795
9921210
2472202
746216
4735241
3823953
2355330
9312600
7127052
8762065
877532
9458382
6714898
3405442
859140
2723621
3567522
3440300
1736545
7855758
4840478
5872875
5224473
8021880
1602051
9927908
2305764
8296400
4432368
7503742
9662
805162
9941303
4998215
4067730
4676543
1338520
6423059
6505494
8465571
7701475
9899377
7923953
6932725
3304819
1299444
100
2172697
6872340
4739743
3909241
4728098
2096572
2298467
9952570
2634804
3900518
2396830
7456919
4713269
6829197
7477012
7239282
150711
7418315
2237496
4218440
4611209
3576015
3157850
3633055
4557938
3375677
3532431
4998242
308401
6837249
6297685
4997449
6225941
3553780
1423041
3470390
8166703
3721508
3422959
3317858
138377
8336140
774777
4851645
5165337
8251788
2090926
5316047
8186454
4328421
2050838
2797663
420788
5208687
6430717
7495077
1100715
9963147
2493318
1409115
9316748
1307354
6406563
5542688
7377485
7829604
9013077
8060540
4067463
4952387
1378397
4205839
3288527
2153173
9057483
970215
2921313
3664760
8802613
1107766
7993180
853450
3905428
930319
8578488
2852496
941747
9679203
5331995
3435064
3604669
4648742
7258770
2527584
2707781
7152606
2873539
1720857
5213145
6941001
100
9189595
6591542
1146839
2478121
1261066
2720673
5964687
4182378
6385432
4767299
5290144
6894963
5620748
1711923
341634
6715588
7080771
1283380
6394790
2412765
4718444
9999458
9577858
4493565
5043393
2285638
1646170
7916931
6522846
6859315
4857931
5712440
3450856
8521121
706913
4711921
1241793
9187951
1410651
143576
3955250
9217146
7038539
2092349
3445420
7380172
8807936
526190
8663551
5202725
5455306
5898346
7718535
5033163
2908262
2761927
9835152
4554432
3195210
8874349
3930098
8053140
7103141
9897305
6574261
326405
7125577
332405
9514355
8536227
475981
3469604
7753372
30871
5561953
1198792
7411042
6886240
4241333
8590944
4605317
9696639
7005642
4840203
7246153
9913903
7602129
9597657
4468334
3313690
988357
8398431
1366830
8091497
8295735
457442
8417901
7937664
789846
7932256
100
6473890
1265826
3918211
6743614
1296696
1996515
7942405
1224089
8882755
4700089
9815033
3488071
6913079
9337026
8328273
6675584
9250928
8446753
6273240
3719262
1760443
7261596
4634044
5643624
7869445
5446131
6101065
6287345
3383794
6890910
6735952
2374035
673088
3170515
9117648
4486135
5167029
9576404
8226576
6566135
4276493
557960
54205
1189571
9894985
898829
381506
9145912
1861934
6654745
5381525
3622376
6432693
2531921
9265999
6818489
7978051
7883415
5622185
3878196
7290676
2358137
6252230
7963763
8045003
5369878
4966250
3212031
4946281
3192825
9778166
1739125
6267136
2348722
5445048
6162120
3247551
5826553
7824383
5109484
4997650
3205908
1248211
3946694
5737828
3030561
765182
6232230
913975
6387366
110425
721002
1261854
8879006
8684765
9306856
6765235
6167366
5035239
1711516
100
1876542
4813404
5966992
8143677
9678477
1412039
6822148
2926027
7238592
4646530
551862
2236241
7852437
4316424
6182934
6106616
9863336
9464467
2338845
777310
5851832
4965621
1498312
9630038
3844627
2699428
8936893
609861
1383145
6488483
4837728
3259686
3818238
804720
3919714
3496715
2216758
3258213
8939093
9455349
7904742
2007307
4207941
8273531
6323730
390874
6896498
6187066
9855340
9235343
9480727
8223524
6717315
3495390
7853561
561941
8711169
9306805
3688154
94313
8311640
8525881
5870350
2129877
1846952
2306415
5626591
6580062
5564627
4565684
6035410
5985721
6572990
2759703
6775603
5413071
5666928
3672100
4116488
8038620
5423794
3597215
6262143
2141109
7092604
6632055
5219401
8320125
8455211
1423906
8414437
6766850
2466139
6801139
8896727
4313090
1623905
7039669
893151
7188532
100
4121704
9444913
5690604
3211045
2204615
4982558
8624116
387894
8654657
2740603
8426513
6594803
8854169
7205007
1252263
8463125
3837061
8988015
6783249
4808624
411921
7714037
4091825
2878059
4515175
2988551
9707500
8655432
2544572
600651
5843963
6666275
2561915
4050918
9877320
7282881
9033475
1017787
7670774
204483
6274741
6097287
9315637
5128910
3302293
567899
3592034
9655706
9555914
2891634
4464329
2484186
605670
8556153
7878596
7637197
4061056
7586095
6292628
9121979
703097
4652942
5788253
5781363
8703859
8181924
3064243
253685
1716062
3251369
2974519
7990803
1865007
2290156
3119712
5167299
2858054
9228097
7339356
4930319
2119730
4320036
9930856
2725399
5392541
7809451
2878947
1969948
7911898
9171574
1091926
1131346
3824515
6880178
6912709
5044725
7578454
2493303
5298409
9294515
100
5744671
789280
7285317
7609677
3079435
2921380
5293328
8453840
4665828
5149035
3384159
9301909
9469071
5831366
2027308
4861611
6157169
7422606
9347910
4069066
6594180
439835
5200411
2935046
9836364
4629471
7979771
7414817
7122774
5794531
9225684
5383796
6583810
9027352
2993473
9663244
4465084
803152
8117084
9130911
5952186
4017594
8432820
5421256
9848959
2976479
2799218
8522479
399084
2147127
2591544
9509615
5103313
308307
2444661
4939677
4937777
424431
4870845
4576902
8735313
4096528
9960698
7835475
5640232
5470522
7498718
105315
6273673
8132153
1752577
2225858
4666098
2701748
163466
7031409
5678226
5479035
5553887
8593662
142514
8145431
8103276
5245826
970089
3064288
2701854
5907865
6005070
7572699
3001119
4740383
4185578
2961816
2575857
9825809
8432337
2590926
2447475
4706009
100
3239431
4200052
9448218
7905528
6901799
2128035
4936936
5096377
7607070
3007175
6206390
265935
1152605
6826017
5511760
4639045
9890305
8213614
3063261
5895374
8302664
6064379
3152108
5004593
9026194
8244316
4830402
9974882
835242
7277876
7197242
6591024
3994279
6645460
4496551
3412430
8773494
1949839
8508806
8896915
4957013
4715195
9162849
8625969
1541211
7190961
3265013
3947867
7920926
6328273
2359593
6223589
4909004
5511700
1228181
3935197
3756016
8574934
3910079
7107609
8369162
1107320
3698632
4879792
269131
711534
8292221
1558977
2661372
6801026
2972243
7618384
4032572
2135092
8760704
8090135
1842404
2025716
2038001
9763329
870341
4397593
8503269
5779344
2425645
2247801
2230892
8698012
3339087
8657322
5805620
1708248
2280994
2020603
6588039
5066476
5248488
7396612
6625452
7909860
100
4197637
9597695
8044595
746561
4249138
6805299
8836695
6091541
1347366
3391047
8371221
4734058
7788640
6874489
3029753
2730636
1638641
5260645
1428647
4977727
6434318
9750618
9202326
8715311
1771220
5790365
3781787
7019707
5703328
2923590
7445918
9900964
2521284
8006865
3163876
9286773
7328515
2000570
5378313
1192232
5391617
3749533
5926290
5696608
3140373
1472394
8427243
4779014
6733038
9855889
9756740
5683708
9606506
8959066
4399018
3894077
7265782
697156
3430135
2969109
3620746
3392405
5386424
8658381
1399269
1066652
7945154
8727783
5583573
5839818
9920014
975189
2105703
8362655
9188148
5246075
9835049
131742
2541440
6568086
9987630
4814532
2251793
2110487
6289949
9167163
8520915
6072082
9864318
4467402
9041190
6001415
7859806
6943965
4659796
9259074
526968
5121301
503208
6110541
100
961118
423221
9602081
3066820
8785876
8790229
829247
8620924
8921970
3370686
7705361
1425952
701569
2473506
6052790
6991517
1640668
7090057
3063598
4021337
1557458
4621139
2539104
9417263
4081456
7198899
1192688
4608423
4836551
1695895
718963
5797668
4635467
321044
1380840
3421342
1627624
2210086
2042265
549593
8097123
2263978
4491896
8798692
4737483
3061038
5790208
8894502
151094
1370158
2915838
1708551
5991296
5454941
3642165
72751
5170191
7351204
7197526
6741
9047098
7916488
8320761
3682564
753883
9701600
9620258
2381506
4428037
4178874
5447451
2525159
6442851
9939346
1323850
1180333
3000383
9630410
74834
3151476
1000567
5507024
7376378
6991862
3478316
3534894
9580965
1164859
886097
6778490
1171599
2449546
7211329
2008711
6132110
7965212
4226662
8268719
346717
8654698
0
